<?xml version="1.0" encoding="UTF-8"?>
<svg width="1440px" height="691px" viewBox="0 0 1440 691" version="1.1" xmlns="http://www.w3.org/2000/svg" xmlns:xlink="http://www.w3.org/1999/xlink">
    <!-- Generator: Sketch 52.4 (67378) - http://www.bohemiancoding.com/sketch -->
    <title>line</title>
    <desc>Created with Sketch.</desc>
    <defs>
        <circle id="path-1" cx="776.5" cy="776.57" r="776.5"></circle>
        <filter x="-2.1%" y="-1.2%" width="104.1%" height="104.1%" filterUnits="objectBoundingBox" id="filter-2">
            <feMorphology radius="4" operator="dilate" in="SourceAlpha" result="shadowSpreadOuter1"></feMorphology>
            <feOffset dx="0" dy="13" in="shadowSpreadOuter1" result="shadowOffsetOuter1"></feOffset>
            <feMorphology radius="4.5" operator="erode" in="SourceAlpha" result="shadowInner"></feMorphology>
            <feOffset dx="0" dy="13" in="shadowInner" result="shadowInner"></feOffset>
            <feComposite in="shadowOffsetOuter1" in2="shadowInner" operator="out" result="shadowOffsetOuter1"></feComposite>
            <feGaussianBlur stdDeviation="6" in="shadowOffsetOuter1" result="shadowBlurOuter1"></feGaussianBlur>
            <feColorMatrix values="0 0 0 0 0.718882866   0 0 0 0 0.718882866   0 0 0 0 0.718882866  0 0 0 0.0902683424 0" type="matrix" in="shadowBlurOuter1"></feColorMatrix>
        </filter>
        <path d="M908.933402,1533.9548 C908.187071,1536.02662 907.447174,1537.87968 906.790917,1539.4432 L874.016696,1623.84107 C869.300656,1625.88072 865.58187,1627.10323 863.909059,1627.8303 L788.947839,1662.20842 C784.804416,1660.6449 781.027724,1658.9913 777.797913,1657.65941 L701.697895,1627.46354 C700.333911,1624.88985 698.978505,1622.16817 697.631678,1619.2985 L661.550438,1542.28714 C661.505401,1542.17132 661.473232,1542.0555 661.428195,1541.95256 C662.333228,1538.65394 663.41841,1535.23736 664.683742,1531.70282 L695.650041,1453.54616 C695.855925,1453.10863 696.061809,1452.69684 696.26126,1452.25931 L782.597592,1414.94075 L783.820031,1414.44531 L869.834669,1448.54676 C870.362248,1449.67275 870.883393,1450.77301 871.365934,1451.83465 L908.933402,1533.9548 Z" id="path-3"></path>
        <filter x="-12.3%" y="-9.9%" width="124.6%" height="124.7%" filterUnits="objectBoundingBox" id="filter-4">
            <feMorphology radius="0.5" operator="dilate" in="SourceAlpha" result="shadowSpreadOuter1"></feMorphology>
            <feOffset dx="0" dy="6" in="shadowSpreadOuter1" result="shadowOffsetOuter1"></feOffset>
            <feGaussianBlur stdDeviation="9" in="shadowOffsetOuter1" result="shadowBlurOuter1"></feGaussianBlur>
            <feComposite in="shadowBlurOuter1" in2="SourceAlpha" operator="out" result="shadowBlurOuter1"></feComposite>
            <feColorMatrix values="0 0 0 0 0   0 0 0 0 0   0 0 0 0 0  0 0 0 0.0765964674 0" type="matrix" in="shadowBlurOuter1"></feColorMatrix>
        </filter>
    </defs>
    <g id="Page-1" stroke="none" stroke-width="1" fill="none" fill-rule="evenodd">
        <g id="Quienes-somos-Copy" transform="translate(0.000000, -318.000000)">
            <g id="line" transform="translate(-68.000000, -677.000000)">
                <g id="Oval-Copy-4">
                    <use fill="black" fill-opacity="1" filter="url(#filter-2)" xlink:href="#path-1"></use>
                    <use stroke="#979797" stroke-width="1" xlink:href="#path-1"></use>
                </g>
                <path d="M1525,1086.28089 C1524.78684,1086.87518 1524.57552,1087.40673 1524.38808,1087.85522 L1515.02743,1112.06446 C1513.68049,1112.64953 1512.61836,1113.0002 1512.14059,1113.20875 L1490.73091,1123.07 C1489.5475,1122.62151 1488.46884,1122.14718 1487.54637,1121.76513 L1465.81144,1113.10355 C1465.42187,1112.3653 1465.03475,1111.58459 1464.65008,1110.76144 L1454.34491,1088.67099 C1454.33205,1088.63777 1454.32286,1088.60455 1454.31,1088.57502 C1454.56849,1087.62882 1454.87843,1086.64879 1455.23982,1085.63492 L1464.08411,1063.21594 C1464.14291,1063.09044 1464.20171,1062.97232 1464.25868,1062.84682 L1488.91721,1052.14211 L1489.26635,1052 L1513.83301,1061.78188 C1513.98369,1062.10487 1514.13253,1062.42047 1514.27035,1062.72501 L1525,1086.28089 Z" id="Path" stroke="#979797" fill="#2D2D2D"></path>
                <path d="M103.69,1030.28089 C103.47684,1030.87518 103.265518,1031.40673 103.078085,1031.85522 L93.7174343,1056.06446 C92.3704856,1056.64953 91.3083623,1057.0002 90.8305906,1057.20875 L69.4209051,1067.07 C68.2375014,1066.62151 67.1588398,1066.14718 66.2363729,1065.76513 L44.5014352,1057.10355 C44.1118675,1056.3653 43.7247499,1055.58459 43.3400824,1054.76144 L33.0349141,1032.67099 C33.022051,1032.63777 33.0128631,1032.60455 33,1032.57502 C33.2584867,1031.62882 33.5684258,1030.64879 33.9298173,1029.63492 L42.7741067,1007.21594 C42.8329094,1007.09044 42.891712,1006.97232 42.9486771,1006.84682 L67.6072102,996.142114 L67.9563511,996 L92.523005,1005.78188 C92.6736869,1006.10487 92.8225311,1006.42047 92.9603499,1006.72501 L103.69,1030.28089 Z" id="Path-Copy" stroke="#979797" fill="#2D2D2D"></path>
                <g id="Path">
                    <use fill="black" fill-opacity="1" filter="url(#filter-4)" xlink:href="#path-3"></use>
                    <use stroke="#979797" stroke-width="1" fill="#FFFFFF" fill-rule="evenodd" xlink:href="#path-3"></use>
                </g>
            </g>
        </g>
    </g>
</svg>