<?xml version="1.0" encoding="UTF-8"?>
<svg width="1325px" height="489px" viewBox="0 0 1325 489" version="1.1" xmlns="http://www.w3.org/2000/svg" xmlns:xlink="http://www.w3.org/1999/xlink">
    <!-- Generator: Sketch 52.4 (67378) - http://www.bohemiancoding.com/sketch -->
    <title>line</title>
    <desc>Created with Sketch.</desc>
    <defs>
        <circle id="path-1" cx="776.5" cy="916.5" r="776.5"></circle>
        <filter x="-2.9%" y="-2.0%" width="105.9%" height="105.9%" filterUnits="objectBoundingBox" id="filter-2">
            <feMorphology radius="7.5" operator="dilate" in="SourceAlpha" result="shadowSpreadOuter1"></feMorphology>
            <feOffset dx="0" dy="14" in="shadowSpreadOuter1" result="shadowOffsetOuter1"></feOffset>
            <feMorphology radius="8" operator="erode" in="SourceAlpha" result="shadowInner"></feMorphology>
            <feOffset dx="0" dy="14" in="shadowInner" result="shadowInner"></feOffset>
            <feComposite in="shadowOffsetOuter1" in2="shadowInner" operator="out" result="shadowOffsetOuter1"></feComposite>
            <feGaussianBlur stdDeviation="8" in="shadowOffsetOuter1" result="shadowBlurOuter1"></feGaussianBlur>
            <feColorMatrix values="0 0 0 0 0.718882866   0 0 0 0 0.718882866   0 0 0 0 0.718882866  0 0 0 0.0921082428 0" type="matrix" in="shadowBlurOuter1"></feColorMatrix>
        </filter>
        <path d="M926.345,157.782358 C925.368006,160.508407 924.399433,162.946613 923.540352,165.00385 L880.636819,276.052283 C874.463225,278.736002 869.595097,280.344541 867.405282,281.301198 L769.276295,326.535 C763.852292,324.477764 758.908363,322.302003 754.680335,320.549543 L655.060589,280.818637 C653.275048,277.432239 651.500736,273.851124 649.737654,270.075291 L602.505025,168.745819 C602.446068,168.593431 602.403957,168.441043 602.345,168.305587 C603.529746,163.965355 604.950319,159.469912 606.606717,154.81926 L647.143565,51.9828407 C647.413081,51.4071531 647.682597,50.8653296 647.94369,50.289642 L760.96342,1.18688148 L762.56367,0.535 L875.162281,45.4047639 C875.852915,46.8863127 876.535127,48.3339976 877.166805,49.7308865 L926.345,157.782358 Z" id="path-3"></path>
        <filter x="-9.4%" y="-7.5%" width="118.8%" height="118.7%" filterUnits="objectBoundingBox" id="filter-4">
            <feMorphology radius="0.5" operator="dilate" in="SourceAlpha" result="shadowSpreadOuter1"></feMorphology>
            <feOffset dx="0" dy="6" in="shadowSpreadOuter1" result="shadowOffsetOuter1"></feOffset>
            <feGaussianBlur stdDeviation="9" in="shadowOffsetOuter1" result="shadowBlurOuter1"></feGaussianBlur>
            <feComposite in="shadowBlurOuter1" in2="SourceAlpha" operator="out" result="shadowBlurOuter1"></feComposite>
            <feColorMatrix values="0 0 0 0 0   0 0 0 0 0   0 0 0 0 0  0 0 0 0.0765964674 0" type="matrix" in="shadowBlurOuter1"></feColorMatrix>
        </filter>
    </defs>
    <g id="Page-1" stroke="none" stroke-width="1" fill="none" fill-rule="evenodd">
        <g id="nuestra-historia" transform="translate(-59.000000, -535.000000)">
            <g id="line" transform="translate(-55.000000, 546.000000)">
                <g id="Oval-Copy-4">
                    <use fill="black" fill-opacity="1" filter="url(#filter-2)" xlink:href="#path-1"></use>
                    <use stroke="#979797" stroke-width="1" xlink:href="#path-1"></use>
                </g>
                <g id="nuestra-historia">
                    <use fill="black" fill-opacity="1" filter="url(#filter-4)" xlink:href="#path-3"></use>
                    <use stroke="#979797" stroke-width="1" fill="#FFFFFF" fill-rule="evenodd" xlink:href="#path-3"></use>
                </g>
            </g>
        </g>
    </g>
</svg>