<?xml version="1.0" encoding="UTF-8"?>
<svg width="17px" height="15px" viewBox="0 0 17 15" version="1.1" xmlns="http://www.w3.org/2000/svg" xmlns:xlink="http://www.w3.org/1999/xlink">
    <!-- Generator: Sketch 52.4 (67378) - http://www.bohemiancoding.com/sketch -->
    <title>instagram-logo (2)</title>
    <desc>Created with Sketch.</desc>
    <g id="Page-1" stroke="none" stroke-width="1" fill="none" fill-rule="evenodd">
        <g id="Servicios-Copy-2" transform="translate(-1375.000000, -972.000000)" fill="#202020">
            <g id="instagram-logo-(2)" transform="translate(1375.000000, 972.000000)">
                <path d="M12.308514,0 L4.69128485,0 C2.10451195,0 0,1.85701104 0,4.13945771 L0,10.8605423 C0,13.1430777 2.10451195,15 4.69128485,15 L12.308514,15 C14.895488,15 17,13.142989 17,10.8605423 L17,4.13945771 C17.0001006,1.85701104 14.895488,0 12.308514,0 Z M15.4917782,10.8605423 C15.4917782,12.4092345 14.0637991,13.6691273 12.3086146,13.6691273 L4.69128485,13.6691273 C2.93620092,13.669216 1.50832239,12.4092345 1.50832239,10.8605423 L1.50832239,4.13945771 C1.50832239,2.59085424 2.93620092,1.3308727 4.69128485,1.3308727 L12.308514,1.3308727 C14.0636985,1.3308727 15.4916776,2.59085424 15.4916776,4.13945771 L15.4916776,10.8605423 L15.4917782,10.8605423 Z" id="Shape" fill-rule="nonzero"></path>
                <path d="M8.5,3.64864865 C6.09317726,3.64864865 4.13513514,5.37637254 4.13513514,7.50008841 C4.13513514,9.62371587 6.09317726,11.3513514 8.5,11.3513514 C10.9068227,11.3513514 12.8648649,9.62371587 12.8648649,7.50008841 C12.8648649,5.37637254 10.9068227,3.64864865 8.5,3.64864865 Z M8.5,10.0251009 C6.92200361,10.0251009 5.63808427,8.89238172 5.63808427,7.5 C5.63808427,6.10752987 6.92190341,4.97472227 8.5,4.97472227 C10.0780966,4.97472227 11.3619157,6.10752987 11.3619157,7.5 C11.3619157,8.89238172 10.0779964,10.0251009 8.5,10.0251009 Z" id="Shape" fill-rule="nonzero"></path>
                <path d="M13.0945946,2.43243243 C12.7928133,2.43243243 12.4963575,2.54023342 12.283231,2.72911548 C12.0690602,2.91707617 11.9459459,3.17874693 11.9459459,3.44594595 C11.9459459,3.71231572 12.0691646,3.97389435 12.283231,4.16277641 C12.4962531,4.3507371 12.7928133,4.45945946 13.0945946,4.45945946 C13.3974201,4.45945946 13.6929361,4.3507371 13.9070025,4.16277641 C14.1210688,3.97389435 14.2432432,3.71222359 14.2432432,3.44594595 C14.2432432,3.17874693 14.1210688,2.91707617 13.9070025,2.72911548 C13.6939803,2.54023342 13.3974201,2.43243243 13.0945946,2.43243243 Z" id="Path"></path>
            </g>
        </g>
    </g>
</svg>