<?xml version="1.0" encoding="UTF-8"?>
<svg width="22px" height="18px" viewBox="0 0 22 18" version="1.1" xmlns="http://www.w3.org/2000/svg" xmlns:xlink="http://www.w3.org/1999/xlink">
    <!-- Generator: Sketch 52.4 (67378) - http://www.bohemiancoding.com/sketch -->
    <title>gmail-logo (1)</title>
    <desc>Created with Sketch.</desc>
    <g id="Page-1" stroke="none" stroke-width="1" fill="none" fill-rule="evenodd">
        <g id="Servicios" transform="translate(-1373.000000, -824.000000)" fill="#FFFFFF" fill-rule="nonzero">
            <g id="gmail-logo-(1)" transform="translate(1384.000000, 833.000000) scale(-1, 1) translate(-1384.000000, -833.000000) translate(1373.000000, 824.000000)">
                <path d="M19.8,0 L2.2,0 C0.99,0 0,1.0125 0,2.25 L0,15.75 C0,16.9875 0.99,18 2.2,18 L19.8,18 C21.01,18 22,16.9875 22,15.75 L22,2.25 C22,1.0125 21.01,0 19.8,0 Z M19.8,15.75 L17.6,15.75 L17.6,5.85 L11,10.125 L4.4,5.85 L4.4,15.75 L2.2,15.75 L2.2,2.25 L3.52,2.25 L11,6.975 L18.48,2.25 L19.8,2.25 L19.8,15.75 Z" id="Shape"></path>
            </g>
        </g>
    </g>
</svg>