<?xml version="1.0" encoding="UTF-8"?>
<svg width="320px" height="1024px" viewBox="0 0 320 1024" version="1.1" xmlns="http://www.w3.org/2000/svg" xmlns:xlink="http://www.w3.org/1999/xlink">
    <!-- Generator: Sketch 52.4 (67378) - http://www.bohemiancoding.com/sketch -->
    <title>line</title>
    <desc>Created with Sketch.</desc>
    <defs>
        <circle id="path-1" cx="901" cy="901" r="901"></circle>
        <filter x="-2.5%" y="-1.7%" width="105.0%" height="105.0%" filterUnits="objectBoundingBox" id="filter-2">
            <feMorphology radius="7.5" operator="dilate" in="SourceAlpha" result="shadowSpreadOuter1"></feMorphology>
            <feOffset dx="0" dy="14" in="shadowSpreadOuter1" result="shadowOffsetOuter1"></feOffset>
            <feMorphology radius="8" operator="erode" in="SourceAlpha" result="shadowInner"></feMorphology>
            <feOffset dx="0" dy="14" in="shadowInner" result="shadowInner"></feOffset>
            <feComposite in="shadowOffsetOuter1" in2="shadowInner" operator="out" result="shadowOffsetOuter1"></feComposite>
            <feGaussianBlur stdDeviation="8" in="shadowOffsetOuter1" result="shadowBlurOuter1"></feGaussianBlur>
            <feColorMatrix values="0 0 0 0 0.0898762713   0 0 0 0 0.0898762713   0 0 0 0 0.111979167  0 0 0 0.0654155344 0" type="matrix" in="shadowBlurOuter1"></feColorMatrix>
        </filter>
        <path d="M221.196733,106.867663 C220.529733,108.720327 219.868483,110.377369 219.281983,111.775497 L189.991485,187.245678 C185.776735,189.069574 182.453236,190.162761 180.958236,190.81292 L113.964991,221.55449 C110.261991,220.156361 106.886742,218.677682 104.000242,217.486683 L35.9892472,190.484964 C34.7702473,188.183517 33.558914,185.749738 32.3552475,183.183625 L0.109249991,114.318596 C0.0689999946,114.21503 0.0402499968,114.111465 5.54223334e-13,114.019408 C0.80883327,111.06972 1.77866653,108.01455 2.90949977,104.853897 L30.5842476,34.9647242 C30.7682476,34.5734783 30.9522476,34.2052469 31.1304976,33.814001 L108.289741,0.443028429 L109.382241,1.42108547e-14 L186.253985,30.4941646 C186.725485,31.5010474 187.191235,32.4849157 187.622485,33.4342624 L221.196733,106.867663 Z" id="path-3"></path>
        <filter x="-11.4%" y="-9.7%" width="123.0%" height="123.1%" filterUnits="objectBoundingBox" id="filter-4">
            <feMorphology radius="4" operator="dilate" in="SourceAlpha" result="shadowSpreadOuter1"></feMorphology>
            <feOffset dx="0" dy="4" in="shadowSpreadOuter1" result="shadowOffsetOuter1"></feOffset>
            <feGaussianBlur stdDeviation="4" in="shadowOffsetOuter1" result="shadowBlurOuter1"></feGaussianBlur>
            <feComposite in="shadowBlurOuter1" in2="SourceAlpha" operator="out" result="shadowBlurOuter1"></feComposite>
            <feColorMatrix values="0 0 0 0 0   0 0 0 0 0   0 0 0 0 0  0 0 0 0.0765964674 0" type="matrix" in="shadowBlurOuter1"></feColorMatrix>
        </filter>
    </defs>
    <g id="Page-1" stroke="none" stroke-width="1" fill="none" fill-rule="evenodd">
        <g id="Servicios-Copy-2" transform="translate(-1022.000000, 0.000000)">
            <g id="line" transform="translate(-578.000000, -389.000000)">
                <g id="Oval-Copy-3">
                    <use fill="black" fill-opacity="1" filter="url(#filter-2)" xlink:href="#path-1"></use>
                    <use stroke="#979797" stroke-width="1" xlink:href="#path-1"></use>
                </g>
                <g id="icon" transform="translate(1683.000000, 790.000000)">
                    <g id="Path-Copy-4">
                        <use fill="black" fill-opacity="1" filter="url(#filter-4)" xlink:href="#path-3"></use>
                        <use stroke="#979797" stroke-width="1" fill="#27272A" fill-rule="evenodd" xlink:href="#path-3"></use>
                    </g>
                    <g id="brain" transform="translate(68.000000, 63.000000)" fill="#FFFFFF">
                        <path d="M52,15 C50.896,15 50,15.896 50,17 C50,18.104 50.896,19 52,19 C53.104,19 54,18.104 54,17 C54,15.896 53.104,15 52,15 Z" id="Path"></path>
                        <path d="M34,15 C32.896,15 32,15.896 32,17 C32,18.104 32.896,19 34,19 C35.104,19 36,18.104 36,17 C36,15.896 35.104,15 34,15 Z" id="Path"></path>
                        <path d="M83.5925609,56.040375 C85.1972087,53.625 86,50.6113125 86,48 C86,44.06325 84.2562565,40.4056875 81.2640174,37.9254375 C81.9262174,36.3384375 82.2608696,34.687875 82.2608696,33 C82.2608696,27.7771875 79.2217043,22.9119375 74.7031522,20.64 C75.3887217,14.937375 71.6836174,9.71025 66.1928913,8.3769375 C64.0438261,3.3945 59.2605435,0 54.2173913,0 C49.522913,0 45.3124652,2.746125 43,6.753 C40.6873478,2.746125 36.4769,0 31.7826087,0 C26.7390826,0 21.9558,3.3945 19.8071087,8.377125 C14.2834783,9.718875 10.6131478,14.9720625 11.2968478,20.64 C6.77848261,22.91175 3.73913043,27.7771875 3.73913043,33 C3.73913043,34.687875 4.07378261,36.3384375 4.73598261,37.9254375 C1.74374348,40.405875 0,44.06325 0,48 C0,50.625 0.809521739,53.63475 2.40743913,56.0401875 C0.845978261,58.2508125 0,60.87075 0,63.5625 C0,67.053 1.41114783,70.378125 3.90720435,72.847125 C2.62393478,80.626875 8.81032609,88.5 16.826087,88.5 C16.8840435,88.5 16.9410652,88.4990625 16.9969652,88.497375 C19.6545522,93.09525 24.587587,96 29.9130435,96 C35.4634087,96 40.4229913,92.65875 43,87.844875 C45.5770087,92.65875 50.5365913,96 56.0869565,96 C61.412413,96 66.3454478,93.09525 69.0030348,88.497375 C69.0591217,88.4990625 69.1159565,88.5 69.173913,88.5 C76.2677913,88.5 82.2608696,82.231875 82.2608696,74.8125 C82.2608696,74.1808125 82.2055304,73.531125 82.0927957,72.847125 C84.5888522,70.378125 86,67.0531875 86,63.5625 C86,60.87075 85.1540217,58.2508125 83.5925609,56.040375 Z M41.1304348,28.3839375 C40.0296348,27.743625 38.7529087,27.375 37.3913043,27.375 C36.3587435,27.375 35.5217391,28.2144375 35.5217391,29.25 C35.5217391,30.2855625 36.3587435,31.125 37.3913043,31.125 C39.4530609,31.125 41.1304348,32.80725 41.1304348,34.875 L41.1304348,70.5316875 C38.3875957,67.4115 34.3770043,65.4375 29.9130435,65.4375 C28.8804826,65.4375 28.0434783,66.2769375 28.0434783,67.3125 C28.0434783,68.3480625 28.8804826,69.1875 29.9130435,69.1875 C36.098313,69.1875 41.1304348,74.23425 41.1304348,80.4375 C41.1304348,86.8404375 35.9934304,92.25 29.9130435,92.25 C25.5846261,92.25 21.6000217,89.6829375 19.7614913,85.71 C19.4225391,84.9778125 18.6548957,84.546 17.8545348,84.636375 C17.7223565,84.6515625 17.5909261,84.6691875 17.4594957,84.6871875 C12.138713,85.4169375 6.14675652,79.374375 7.7687913,72.614625 C7.93536957,71.9203125 7.69419565,71.1916875 7.14697391,70.7349375 C4.98126957,68.927625 3.73913043,66.3133125 3.73913043,63.5625 C3.73913043,61.8616875 4.21867391,60.19725 5.11101739,58.73775 C7.35337391,60.580875 10.1425783,61.6875 13.0869565,61.6875 C14.1195174,61.6875 14.9565217,60.8480625 14.9565217,59.8125 C14.9565217,58.7769375 14.1195174,57.9375 13.0869565,57.9375 C8.01314348,57.9375 3.73913043,53.293125 3.73913043,48 C3.73913043,44.7890625 5.37107391,41.8351875 8.10493913,40.098375 C8.94717826,39.56325 9.22256522,38.4594375 8.73068261,37.589625 C7.89966087,36.1198125 7.47826087,34.5755625 7.47826087,33 C7.47826087,27.939375 11.5916783,23.0625 16.826087,23.0625 C21.8058609,23.0625 26.173913,27.7063125 26.173913,33 C26.173913,34.0355625 27.0109174,34.875 28.0434783,34.875 C29.0760391,34.875 29.9130435,34.0355625 29.9130435,33 C29.9130435,25.580625 23.9199652,19.3125 16.826087,19.3125 C16.2001565,19.3125 15.5775913,19.3633125 14.9611957,19.4595 C14.9602609,19.4101875 14.9565217,19.3621875 14.9565217,19.3125 C14.9565217,15.1280625 18.343613,11.8125 22.4347826,11.8125 C24.4318522,11.8125 26.3103913,12.5926875 27.7241565,14.0090625 C28.4545957,14.740875 29.6382174,14.740125 30.3680957,14.00775 C31.097787,13.275 31.0972261,12.0879375 30.366787,11.356125 C28.6611826,9.6474375 26.5038913,8.5576875 24.166,8.1965625 C25.8147696,5.742 28.556487,3.75 31.7826087,3.75 C36.7623826,3.75 41.1304348,8.393625 41.1304348,13.6875 L41.1304348,28.3839375 Z M72.9130435,61.6875 C75.8576087,61.6875 78.646813,60.5806875 80.8891696,58.7383125 C81.7813261,60.197625 82.2608696,61.861875 82.2608696,63.5625 C82.2608696,66.3133125 81.0187304,68.927625 78.853213,70.7349375 C78.3058043,71.1916875 78.0648174,71.9205 78.2313957,72.614625 C78.4295696,73.4401875 78.5217391,74.138625 78.5217391,74.8123125 C78.5217391,80.6323125 73.2729348,85.3359375 68.5406913,84.6871875 C68.4092609,84.6691875 68.2776435,84.651375 68.1454652,84.636375 C67.3439826,84.5454375 66.5772739,84.9778125 66.2386957,85.71 C64.4001652,89.6829375 60.415187,92.25 56.0869565,92.25 C50.0065696,92.25 44.8695652,86.8404375 44.8695652,80.4375 C44.8695652,74.23425 49.901687,69.1875 56.0869565,69.1875 C57.1193304,69.1875 57.9565217,68.3480625 57.9565217,67.3125 C57.9565217,66.2769375 57.1193304,65.4375 56.0869565,65.4375 C51.6229957,65.4375 47.6124043,67.4115 44.8695652,70.5316875 L44.8695652,34.875 C44.8695652,32.80725 46.5469391,31.125 48.6086957,31.125 C49.6410696,31.125 50.4782609,30.2855625 50.4782609,29.25 C50.4782609,28.2144375 49.6410696,27.375 48.6086957,27.375 C47.2470913,27.375 45.9703652,27.743625 44.8695652,28.3839375 L44.8695652,13.6875 C44.8695652,8.393625 49.2376174,3.75 54.2173913,3.75 C57.443513,3.75 60.1850435,5.742 61.833813,8.196375 C59.4961087,8.5575 57.3390043,9.64725 55.633213,11.3559375 C54.902587,12.08775 54.9018391,13.2748125 55.6315304,14.0075625 C56.3612217,14.7403125 57.5452174,14.740875 58.2754696,14.0090625 C59.6897957,12.5926875 61.5681478,11.8125 63.5652174,11.8125 C67.6769522,11.8125 71.0434783,15.1475625 71.0434783,19.3125 C71.0434783,19.362 71.0397391,19.4101875 71.0388043,19.4595 C70.4224087,19.3633125 69.7998435,19.3125 69.173913,19.3125 C62.0800348,19.3125 56.0869565,25.580625 56.0869565,33 C56.0869565,34.0355625 56.9241478,34.875 57.9565217,34.875 C58.9888957,34.875 59.826087,34.0355625 59.826087,33 C59.826087,27.7063125 64.1941391,23.0625 69.173913,23.0625 C74.4053304,23.0625 78.5217391,27.9369375 78.5217391,33 C78.5217391,34.5755625 78.1003391,36.1198125 77.2693174,37.589625 C76.7776217,38.4594375 77.0530087,39.56325 77.8952478,40.098375 C80.6289261,41.8351875 82.2608696,44.7890625 82.2608696,48 C82.2608696,53.3120625 77.9719,57.9375 72.9130435,57.9375 C71.8806696,57.9375 71.0434783,58.7769375 71.0434783,59.8125 C71.0434783,60.8480625 71.8806696,61.6875 72.9130435,61.6875 Z" id="Shape" fill-rule="nonzero"></path>
                        <path d="M36.5330848,40.2101583 C35.8580503,39.4212583 34.6991985,39.3537917 33.9444139,40.0595083 C28.0652711,45.5574667 18.6666726,41.1635083 18.6666726,32.9166667 C18.6666726,31.8580917 17.8458879,31 16.8333363,31 C15.8207847,31 15,31.8580917 15,32.9166667 C15,39.570375 19.6579575,45.1057083 25.7433507,46.1525917 C25.0375162,48.477125 22.9541128,50.1666667 20.5000089,50.1666667 C19.4874572,50.1666667 18.6666726,51.0247583 18.6666726,52.0833333 C18.6666726,53.1419083 19.4874572,54 20.5000089,54 C24.9654661,54 28.6931888,50.6439167 29.5020567,46.21795 C32.0516775,45.8693083 34.4513314,44.7287 36.3889845,42.9164917 C37.1435857,42.210775 37.2081192,40.9990583 36.5330848,40.2101583 Z" id="Path"></path>
                        <path d="M16.875,73 C15.8394375,73 15,73.8630361 15,74.9277108 C15,75.9923855 15.8394375,76.8554217 16.875,76.8554217 C21.86925,76.8554217 26.25,81.6297831 26.25,87.0722892 C26.25,88.1369639 27.0894375,89 28.125,89 C29.1605625,89 30,88.1369639 30,87.0722892 C30,79.4443373 23.9895,73 16.875,73 Z" id="Path"></path>
                        <path d="M32.1027188,58 C25.6735919,58 20.1536421,61.3767961 17.2470073,66.2867321 C16.7303777,67.1597752 17.050449,68.268658 17.9619029,68.7634127 C18.8735465,69.2581674 20.0312674,68.9518301 20.5480868,68.078787 C22.8124919,64.2530233 27.1090748,61.6338941 32.1027188,61.6338941 C33.1505872,61.6338941 34,60.8204469 34,59.8169471 C34,58.8134472 33.1505872,58 32.1027188,58 Z" id="Path"></path>
                        <path d="M65.5000095,50.1666667 C63.0459137,50.1666667 60.9625173,48.477125 60.2566852,46.1525917 C66.342058,45.1057083 71,39.570375 71,32.9166667 C71,31.8580917 70.1790347,31 69.1666698,31 C68.1543049,31 67.3333396,31.8580917 67.3333396,32.9166667 C67.3333396,38.2009167 63.2211801,42.5 58.1666888,42.5 C55.9087593,42.5 53.7386464,41.6332833 52.0556493,40.0595083 C51.3012339,39.3537917 50.1420192,39.4210667 49.4669871,40.2101583 C48.7917716,40.9990583 48.8564881,42.210775 49.6110868,42.9164917 C51.5487335,44.7287 53.9485627,45.8693083 56.4979916,46.21795 C57.3068569,50.6439167 61.0345672,54 65.5000095,54 C66.5123744,54 67.3333396,53.1419083 67.3333396,52.0833333 C67.3333396,51.0247583 66.5123744,50.1666667 65.5000095,50.1666667 Z" id="Path"></path>
                        <path d="M69.125,73 C62.0105,73 56,79.4443373 56,87.0722892 C56,88.1369639 56.839625,89 57.875,89 C58.910375,89 59.75,88.1369639 59.75,87.0722892 C59.75,81.6297831 64.13075,76.8554217 69.125,76.8554217 C70.160375,76.8554217 71,75.9923855 71,74.9277108 C71,73.8630361 70.160375,73 69.125,73 Z" id="Path"></path>
                        <path d="M68.7531283,66.2868181 C65.8536797,61.3885671 60.3412744,58 53.8972965,58 C52.8496094,58 52,58.8134378 52,59.8169261 C52,60.8204143 52.8496094,61.6338522 53.8972965,61.6338522 C58.8873761,61.6338522 63.1872192,64.2522243 65.4516426,68.0786706 C65.9690354,68.9527938 67.1277143,69.257674 68.0378475,68.7634701 C68.9494985,68.2687211 69.2695724,67.1598511 68.7531283,66.2868181 Z" id="Path"></path>
                    </g>
                </g>
            </g>
        </g>
    </g>
</svg>